<svg xmlns="http://www.w3.org/2000/svg" width="8.089" height="21.207" viewBox="0 0 8.089 21.207">
  <path id="Path_1164" data-name="Path 1164" d="M12.764,0,20,7.235H0" transform="translate(7.735 -0.001) rotate(90)" fill="none" stroke="#fff" stroke-width="1"/>
</svg>
