<svg xmlns="http://www.w3.org/2000/svg" width="13" height="154.5" viewBox="0 0 13 154.5">
  <g id="Group_334" data-name="Group 334" transform="translate(-1537 -845)">
    <g id="Group_333" data-name="Group 333">
      <path id="Path_1139" data-name="Path 1139" d="M-15319.664-13851v70" transform="translate(16863.164 14780.502)" fill="none" stroke="#333" stroke-width="1"/>
      <g id="Ellipse_1" data-name="Ellipse 1" transform="translate(1537 940)" fill="none" stroke="#333" stroke-width="1">
        <circle cx="6.5" cy="6.5" r="6.5" stroke="none"/>
        <circle cx="6.5" cy="6.5" r="6" fill="none"/>
      </g>
    </g>
    <text id="SCROOL_DOWN" data-name="SCROOL DOWN" transform="translate(1540 845) rotate(90)" fill="#333" font-size="10" font-family="YuGothic-Medium, Yu Gothic" font-weight="500"><tspan x="0" y="0">SCROOL DOWN</tspan></text>
  </g>
</svg>
